mary
…
ℹ Use `spec()` to retrieve the full column specification for this data.
ℹ Specify the column types or set `show_col_types = FALSE` to quiet this message.

rats_location <- rats |>
  select(Latitude, Longitude) 

rats_location

# A tibble: 239,532 × 2
   Latitude Longitude
      <dbl>     <dbl>
 1     40.7     -73.9
 2     40.8     -73.9
 3     40.8     -73.9
 4     40.8     -74.0
 5     40.7     -74.0
 6     40.8     -73.9
 7     40.7     -74.0
 8     40.6     -74.0
 9     40.8     -74.0
10     40.7     -74.0
# ℹ 239,522 more rows
…
